<svg width="800" height="600" viewBox="0 0 800 600" fill="none" xmlns="http://www.w3.org/2000/svg">
<rect width="800" height="600" rx="40" fill="#F2F2F2"/>
<path d="M300 316H448.487L409.95 277.463C406.668 278.086 403.34 278.433 400 278.5C366.125 278.5 337.5 249.875 337.5 216C337.5 212.613 337.988 209.313 338.538 206.05L276.8 144.313C275.675 147.163 275 150.25 275 153.5V291C275 304.788 286.212 316 300 316ZM500 128.5H467.675L433.837 94.6625C432.679 93.4995 431.301 92.5771 429.785 91.9486C428.268 91.32 426.642 90.9976 425 91H375C373.358 90.9976 371.732 91.32 370.215 91.9486C368.699 92.5771 367.321 93.4995 366.163 94.6625L332.325 128.5H330.175L296.338 94.6625L278.662 112.338L503.662 337.338L521.338 319.663L513.512 311.838C517.024 309.609 519.917 306.532 521.925 302.89C523.932 299.248 524.99 295.159 525 291V153.5C525 139.713 513.788 128.5 500 128.5ZM433.6 231.925C436.116 226.99 437.451 221.539 437.5 216C437.5 195.675 420.325 178.5 400 178.5C394.3 178.5 388.95 180 384.075 182.4L365.825 164.15C375.895 157.262 387.8 153.552 400 153.5C433.875 153.5 462.5 182.125 462.5 216C462.448 228.2 458.738 240.105 451.85 250.175L433.6 231.925V231.925Z" fill="#BDBDBD"/>
<path d="M215.028 435H207.58L197.662 420.028V435H190.214V408.21H197.662L207.58 423.372V408.21H215.028V435ZM232.495 435.266C229.987 435.266 227.682 434.683 225.579 433.518C223.476 432.327 221.804 430.693 220.563 428.616C219.347 426.513 218.739 424.145 218.739 421.51C218.739 418.875 219.347 416.519 220.563 414.442C221.804 412.339 223.476 410.705 225.579 409.54C227.682 408.375 229.987 407.792 232.495 407.792C235.028 407.792 237.334 408.375 239.411 409.54C241.514 410.705 243.173 412.339 244.389 414.442C245.605 416.519 246.213 418.875 246.213 421.51C246.213 424.145 245.605 426.513 244.389 428.616C243.173 430.693 241.514 432.327 239.411 433.518C237.308 434.683 235.003 435.266 232.495 435.266ZM232.495 428.35C234.395 428.35 235.89 427.729 236.979 426.488C238.094 425.247 238.651 423.587 238.651 421.51C238.651 419.382 238.094 417.71 236.979 416.494C235.89 415.253 234.395 414.632 232.495 414.632C230.57 414.632 229.062 415.253 227.973 416.494C226.884 417.71 226.339 419.382 226.339 421.51C226.339 423.613 226.884 425.285 227.973 426.526C229.062 427.742 230.57 428.35 232.495 428.35ZM267.703 435.266C264.587 435.266 262.028 434.531 260.027 433.062C258.025 431.567 256.949 429.439 256.797 426.678H264.739C264.815 427.615 265.093 428.299 265.575 428.73C266.056 429.161 266.677 429.376 267.437 429.376C268.121 429.376 268.678 429.211 269.109 428.882C269.565 428.527 269.793 428.046 269.793 427.438C269.793 426.653 269.425 426.045 268.691 425.614C267.956 425.183 266.765 424.702 265.119 424.17C263.371 423.587 261.952 423.03 260.863 422.498C259.799 421.941 258.861 421.143 258.051 420.104C257.265 419.04 256.873 417.659 256.873 415.962C256.873 414.239 257.303 412.77 258.165 411.554C259.026 410.313 260.217 409.375 261.737 408.742C263.257 408.109 264.979 407.792 266.905 407.792C270.021 407.792 272.503 408.527 274.353 409.996C276.227 411.44 277.228 413.479 277.355 416.114H269.261C269.235 415.303 268.982 414.695 268.501 414.29C268.045 413.885 267.449 413.682 266.715 413.682C266.157 413.682 265.701 413.847 265.347 414.176C264.992 414.505 264.815 414.974 264.815 415.582C264.815 416.089 265.005 416.532 265.385 416.912C265.79 417.267 266.284 417.583 266.867 417.862C267.449 418.115 268.311 418.445 269.451 418.85C271.148 419.433 272.541 420.015 273.631 420.598C274.745 421.155 275.695 421.953 276.481 422.992C277.291 424.005 277.697 425.297 277.697 426.868C277.697 428.464 277.291 429.895 276.481 431.162C275.695 432.429 274.543 433.429 273.023 434.164C271.528 434.899 269.755 435.266 267.703 435.266ZM288.987 414.176V418.546H297.537V424.208H288.987V429.034H298.677V435H281.539V408.21H298.677V414.176H288.987ZM317.839 414.176V418.546H326.389V424.208H317.839V429.034H327.529V435H310.391V408.21H327.529V414.176H317.839ZM356.403 435H348.955L339.037 420.028V435H331.589V408.21H339.037L348.955 423.372V408.21H356.403V435ZM360.114 421.548C360.114 418.913 360.659 416.57 361.748 414.518C362.863 412.441 364.433 410.832 366.46 409.692C368.487 408.527 370.817 407.944 373.452 407.944C376.796 407.944 379.608 408.843 381.888 410.642C384.168 412.415 385.637 414.835 386.296 417.9H378.278C377.797 416.887 377.125 416.114 376.264 415.582C375.428 415.05 374.453 414.784 373.338 414.784C371.615 414.784 370.235 415.405 369.196 416.646C368.183 417.862 367.676 419.496 367.676 421.548C367.676 423.625 368.183 425.285 369.196 426.526C370.235 427.742 371.615 428.35 373.338 428.35C374.453 428.35 375.428 428.084 376.264 427.552C377.125 427.02 377.797 426.247 378.278 425.234H386.296C385.637 428.299 384.168 430.731 381.888 432.53C379.608 434.303 376.796 435.19 373.452 435.19C370.817 435.19 368.487 434.62 366.46 433.48C364.433 432.315 362.863 430.706 361.748 428.654C360.659 426.577 360.114 424.208 360.114 421.548ZM403.047 435.266C400.539 435.266 398.233 434.683 396.131 433.518C394.028 432.327 392.356 430.693 391.115 428.616C389.899 426.513 389.291 424.145 389.291 421.51C389.291 418.875 389.899 416.519 391.115 414.442C392.356 412.339 394.028 410.705 396.131 409.54C398.233 408.375 400.539 407.792 403.047 407.792C405.58 407.792 407.885 408.375 409.963 409.54C412.065 410.705 413.725 412.339 414.941 414.442C416.157 416.519 416.765 418.875 416.765 421.51C416.765 424.145 416.157 426.513 414.941 428.616C413.725 430.693 412.065 432.327 409.963 433.518C407.86 434.683 405.555 435.266 403.047 435.266ZM403.047 428.35C404.947 428.35 406.441 427.729 407.531 426.488C408.645 425.247 409.203 423.587 409.203 421.51C409.203 419.382 408.645 417.71 407.531 416.494C406.441 415.253 404.947 414.632 403.047 414.632C401.121 414.632 399.614 415.253 398.525 416.494C397.435 417.71 396.891 419.382 396.891 421.51C396.891 423.613 397.435 425.285 398.525 426.526C399.614 427.742 401.121 428.35 403.047 428.35ZM445.307 435H437.859L427.941 420.028V435H420.493V408.21H427.941L437.859 423.372V408.21H445.307V435ZM470.108 408.21V414.138H462.964V435H455.516V414.138H448.448V408.21H470.108ZM486.809 435L481.489 425.12H480.691V435H473.243V408.21H484.985C487.139 408.21 488.963 408.59 490.457 409.35C491.952 410.085 493.079 411.111 493.839 412.428C494.599 413.72 494.979 415.177 494.979 416.798C494.979 418.622 494.473 420.231 493.459 421.624C492.471 422.992 491.015 423.967 489.089 424.55L495.131 435H486.809ZM480.691 420.028H484.377C485.391 420.028 486.151 419.787 486.657 419.306C487.164 418.825 487.417 418.128 487.417 417.216C487.417 416.355 487.151 415.683 486.619 415.202C486.113 414.695 485.365 414.442 484.377 414.442H480.691V420.028ZM515.694 430.63H506.194L504.75 435H496.922L506.688 408.21H515.276L525.004 435H517.138L515.694 430.63ZM513.832 424.93L510.944 416.266L508.094 424.93H513.832ZM541.378 435L536.058 425.12H535.26V435H527.812V408.21H539.554C541.707 408.21 543.531 408.59 545.026 409.35C546.52 410.085 547.648 411.111 548.408 412.428C549.168 413.72 549.548 415.177 549.548 416.798C549.548 418.622 549.041 420.231 548.028 421.624C547.04 422.992 545.583 423.967 543.658 424.55L549.7 435H541.378ZM535.26 420.028H538.946C539.959 420.028 540.719 419.787 541.226 419.306C541.732 418.825 541.986 418.128 541.986 417.216C541.986 416.355 541.72 415.683 541.188 415.202C540.681 414.695 539.934 414.442 538.946 414.442H535.26V420.028ZM566.159 435.266C563.651 435.266 561.345 434.683 559.243 433.518C557.14 432.327 555.468 430.693 554.227 428.616C553.011 426.513 552.403 424.145 552.403 421.51C552.403 418.875 553.011 416.519 554.227 414.442C555.468 412.339 557.14 410.705 559.243 409.54C561.345 408.375 563.651 407.792 566.159 407.792C568.692 407.792 570.997 408.375 573.075 409.54C575.177 410.705 576.837 412.339 578.053 414.442C579.269 416.519 579.877 418.875 579.877 421.51C579.877 424.145 579.269 426.513 578.053 428.616C576.837 430.693 575.177 432.327 573.075 433.518C570.972 434.683 568.667 435.266 566.159 435.266ZM566.159 428.35C568.059 428.35 569.553 427.729 570.643 426.488C571.757 425.247 572.315 423.587 572.315 421.51C572.315 419.382 571.757 417.71 570.643 416.494C569.553 415.253 568.059 414.632 566.159 414.632C564.233 414.632 562.726 415.253 561.637 416.494C560.547 417.71 560.003 419.382 560.003 421.51C560.003 423.613 560.547 425.285 561.637 426.526C562.726 427.742 564.233 428.35 566.159 428.35ZM608.419 435H600.971L591.053 420.028V435H583.605V408.21H591.053L600.971 423.372V408.21H608.419V435ZM219.752 467.21V473.138H209.036V477.85H216.94V483.512H209.036V494H201.588V467.21H219.752ZM236.113 494.266C233.605 494.266 231.3 493.683 229.197 492.518C227.095 491.327 225.423 489.693 224.181 487.616C222.965 485.513 222.357 483.145 222.357 480.51C222.357 477.875 222.965 475.519 224.181 473.442C225.423 471.339 227.095 469.705 229.197 468.54C231.3 467.375 233.605 466.792 236.113 466.792C238.647 466.792 240.952 467.375 243.029 468.54C245.132 469.705 246.791 471.339 248.007 473.442C249.223 475.519 249.831 477.875 249.831 480.51C249.831 483.145 249.223 485.513 248.007 487.616C246.791 489.693 245.132 491.327 243.029 492.518C240.927 493.683 238.621 494.266 236.113 494.266ZM236.113 487.35C238.013 487.35 239.508 486.729 240.597 485.488C241.712 484.247 242.269 482.587 242.269 480.51C242.269 478.382 241.712 476.71 240.597 475.494C239.508 474.253 238.013 473.632 236.113 473.632C234.188 473.632 232.681 474.253 231.591 475.494C230.502 476.71 229.957 478.382 229.957 480.51C229.957 482.613 230.502 484.285 231.591 485.526C232.681 486.742 234.188 487.35 236.113 487.35ZM273.737 467.21V473.138H266.593V494H259.145V473.138H252.077V467.21H273.737ZM289.717 494.266C287.209 494.266 284.904 493.683 282.801 492.518C280.698 491.327 279.026 489.693 277.785 487.616C276.569 485.513 275.961 483.145 275.961 480.51C275.961 477.875 276.569 475.519 277.785 473.442C279.026 471.339 280.698 469.705 282.801 468.54C284.904 467.375 287.209 466.792 289.717 466.792C292.25 466.792 294.556 467.375 296.633 468.54C298.736 469.705 300.395 471.339 301.611 473.442C302.827 475.519 303.435 477.875 303.435 480.51C303.435 483.145 302.827 485.513 301.611 487.616C300.395 489.693 298.736 491.327 296.633 492.518C294.53 493.683 292.225 494.266 289.717 494.266ZM289.717 487.35C291.617 487.35 293.112 486.729 294.201 485.488C295.316 484.247 295.873 482.587 295.873 480.51C295.873 478.382 295.316 476.71 294.201 475.494C293.112 474.253 291.617 473.632 289.717 473.632C287.792 473.632 286.284 474.253 285.195 475.494C284.106 476.71 283.561 478.382 283.561 480.51C283.561 482.613 284.106 484.285 285.195 485.526C286.284 486.742 287.792 487.35 289.717 487.35ZM317.271 494.266C314.155 494.266 311.596 493.531 309.595 492.062C307.594 490.567 306.517 488.439 306.365 485.678H314.307C314.383 486.615 314.662 487.299 315.143 487.73C315.624 488.161 316.245 488.376 317.005 488.376C317.689 488.376 318.246 488.211 318.677 487.882C319.133 487.527 319.361 487.046 319.361 486.438C319.361 485.653 318.994 485.045 318.259 484.614C317.524 484.183 316.334 483.702 314.687 483.17C312.939 482.587 311.52 482.03 310.431 481.498C309.367 480.941 308.43 480.143 307.619 479.104C306.834 478.04 306.441 476.659 306.441 474.962C306.441 473.239 306.872 471.77 307.733 470.554C308.594 469.313 309.785 468.375 311.305 467.742C312.825 467.109 314.548 466.792 316.473 466.792C319.589 466.792 322.072 467.527 323.921 468.996C325.796 470.44 326.796 472.479 326.923 475.114H318.829C318.804 474.303 318.55 473.695 318.069 473.29C317.613 472.885 317.018 472.682 316.283 472.682C315.726 472.682 315.27 472.847 314.915 473.176C314.56 473.505 314.383 473.974 314.383 474.582C314.383 475.089 314.573 475.532 314.953 475.912C315.358 476.267 315.852 476.583 316.435 476.862C317.018 477.115 317.879 477.445 319.019 477.85C320.716 478.433 322.11 479.015 323.199 479.598C324.314 480.155 325.264 480.953 326.049 481.992C326.86 483.005 327.265 484.297 327.265 485.868C327.265 487.464 326.86 488.895 326.049 490.162C325.264 491.429 324.111 492.429 322.591 493.164C321.096 493.899 319.323 494.266 317.271 494.266ZM349.363 467.21C352.175 467.21 354.632 467.78 356.735 468.92C358.863 470.035 360.497 471.605 361.637 473.632C362.777 475.659 363.347 477.977 363.347 480.586C363.347 483.17 362.764 485.475 361.599 487.502C360.459 489.529 358.825 491.125 356.697 492.29C354.594 493.43 352.15 494 349.363 494H338.761V467.21H349.363ZM348.793 487.426C350.972 487.426 352.682 486.831 353.923 485.64C355.164 484.449 355.785 482.765 355.785 480.586C355.785 478.382 355.164 476.685 353.923 475.494C352.682 474.278 350.972 473.67 348.793 473.67H346.209V487.426H348.793ZM374.532 473.176V477.546H383.082V483.208H374.532V488.034H384.222V494H367.084V467.21H384.222V473.176H374.532ZM403.384 473.176V477.546H411.934V483.208H403.384V488.034H413.074V494H395.936V467.21H413.074V473.176H403.384ZM427.243 494.266C424.127 494.266 421.568 493.531 419.567 492.062C417.565 490.567 416.489 488.439 416.337 485.678H424.279C424.355 486.615 424.633 487.299 425.115 487.73C425.596 488.161 426.217 488.376 426.977 488.376C427.661 488.376 428.218 488.211 428.649 487.882C429.105 487.527 429.333 487.046 429.333 486.438C429.333 485.653 428.965 485.045 428.231 484.614C427.496 484.183 426.305 483.702 424.659 483.17C422.911 482.587 421.492 482.03 420.403 481.498C419.339 480.941 418.401 480.143 417.591 479.104C416.805 478.04 416.413 476.659 416.413 474.962C416.413 473.239 416.843 471.77 417.705 470.554C418.566 469.313 419.757 468.375 421.277 467.742C422.797 467.109 424.519 466.792 426.445 466.792C429.561 466.792 432.043 467.527 433.893 468.996C435.767 470.44 436.768 472.479 436.895 475.114H428.801C428.775 474.303 428.522 473.695 428.041 473.29C427.585 472.885 426.989 472.682 426.255 472.682C425.697 472.682 425.241 472.847 424.887 473.176C424.532 473.505 424.355 473.974 424.355 474.582C424.355 475.089 424.545 475.532 424.925 475.912C425.33 476.267 425.824 476.583 426.407 476.862C426.989 477.115 427.851 477.445 428.991 477.85C430.688 478.433 432.081 479.015 433.171 479.598C434.285 480.155 435.235 480.953 436.021 481.992C436.831 483.005 437.237 484.297 437.237 485.868C437.237 487.464 436.831 488.895 436.021 490.162C435.235 491.429 434.083 492.429 432.563 493.164C431.068 493.899 429.295 494.266 427.243 494.266ZM461.257 467.21V473.138H454.113V494H446.665V473.138H439.597V467.21H461.257ZM471.841 473.176V477.546H480.391V483.208H471.841V488.034H481.531V494H464.393V467.21H481.531V473.176H471.841ZM514.41 476.14C514.41 477.761 514.03 479.243 513.27 480.586C512.536 481.903 511.408 482.967 509.888 483.778C508.394 484.563 506.557 484.956 504.378 484.956H500.692V494H493.244V467.21H504.378C506.532 467.21 508.356 467.59 509.85 468.35C511.37 469.11 512.51 470.161 513.27 471.504C514.03 472.847 514.41 474.392 514.41 476.14ZM503.656 479.028C505.759 479.028 506.81 478.065 506.81 476.14C506.81 474.189 505.759 473.214 503.656 473.214H500.692V479.028H503.656ZM530.627 494.266C528.119 494.266 525.813 493.683 523.711 492.518C521.608 491.327 519.936 489.693 518.695 487.616C517.479 485.513 516.871 483.145 516.871 480.51C516.871 477.875 517.479 475.519 518.695 473.442C519.936 471.339 521.608 469.705 523.711 468.54C525.813 467.375 528.119 466.792 530.627 466.792C533.16 466.792 535.465 467.375 537.543 468.54C539.645 469.705 541.305 471.339 542.521 473.442C543.737 475.519 544.345 477.875 544.345 480.51C544.345 483.145 543.737 485.513 542.521 487.616C541.305 489.693 539.645 491.327 537.543 492.518C535.44 493.683 533.135 494.266 530.627 494.266ZM530.627 487.35C532.527 487.35 534.021 486.729 535.111 485.488C536.225 484.247 536.783 482.587 536.783 480.51C536.783 478.382 536.225 476.71 535.111 475.494C534.021 474.253 532.527 473.632 530.627 473.632C528.701 473.632 527.194 474.253 526.105 475.494C525.015 476.71 524.471 478.382 524.471 480.51C524.471 482.613 525.015 484.285 526.105 485.526C527.194 486.742 528.701 487.35 530.627 487.35ZM556.205 487.958H567.339V494H547.845V488.338L558.865 473.214H547.845V467.21H567.339V472.872L556.205 487.958ZM584.601 494.266C582.093 494.266 579.788 493.683 577.685 492.518C575.583 491.327 573.911 489.693 572.669 487.616C571.453 485.513 570.845 483.145 570.845 480.51C570.845 477.875 571.453 475.519 572.669 473.442C573.911 471.339 575.583 469.705 577.685 468.54C579.788 467.375 582.093 466.792 584.601 466.792C587.135 466.792 589.44 467.375 591.517 468.54C593.62 469.705 595.279 471.339 596.495 473.442C597.711 475.519 598.319 477.875 598.319 480.51C598.319 483.145 597.711 485.513 596.495 487.616C595.279 489.693 593.62 491.327 591.517 492.518C589.415 493.683 587.109 494.266 584.601 494.266ZM584.601 487.35C586.501 487.35 587.996 486.729 589.085 485.488C590.2 484.247 590.757 482.587 590.757 480.51C590.757 478.382 590.2 476.71 589.085 475.494C587.996 474.253 586.501 473.632 584.601 473.632C582.676 473.632 581.169 474.253 580.079 475.494C578.99 476.71 578.445 478.382 578.445 480.51C578.445 482.613 578.99 484.285 580.079 485.526C581.169 486.742 582.676 487.35 584.601 487.35Z" fill="#828282"/>
</svg>
